/home/vagrant/stdrpc/src/main/java/br/com/santander/poc/cartao/Cartao.java
/home/vagrant/stdrpc/src/main/java/br/com/santander/poc/prato/Prato.java
/home/vagrant/stdrpc/src/main/java/br/com/santander/poc/cliente/ClienteRepository.java
/home/vagrant/stdrpc/src/main/java/br/com/santander/poc/bebida/Bebida.java
/home/vagrant/stdrpc/src/main/java/br/com/santander/poc/cliente/Cliente.java
/home/vagrant/stdrpc/src/main/java/br/com/santander/poc/pedido/PedidoRepository.java
/home/vagrant/stdrpc/src/main/java/br/com/santander/poc/demo/DemoController.java
/home/vagrant/stdrpc/src/main/java/br/com/santander/poc/cliente/ClienteController.java
/home/vagrant/stdrpc/src/main/java/br/com/santander/poc/cartao/CartaoRepository.java
/home/vagrant/stdrpc/src/main/java/br/com/santander/poc/geolocalizacao/Geolocalizacao.java
/home/vagrant/stdrpc/src/main/java/br/com/santander/poc/prato/PratoController.java
/home/vagrant/stdrpc/src/main/java/br/com/santander/poc/bebida/BebidaRepository.java
/home/vagrant/stdrpc/src/main/java/br/com/santander/poc/tipocomida/TipoComidaController.java
/home/vagrant/stdrpc/src/main/java/br/com/santander/poc/pedido/PedidoController.java
/home/vagrant/stdrpc/src/main/java/br/com/santander/poc/cartao/CartaoController.java
/home/vagrant/stdrpc/src/main/java/br/com/santander/poc/demo/User.java
/home/vagrant/stdrpc/src/main/java/br/com/santander/poc/bebida/BebidaController.java
/home/vagrant/stdrpc/src/main/java/br/com/santander/poc/restaurante/Restaurante.java
/home/vagrant/stdrpc/src/main/java/br/com/santander/poc/demo/UserRepository.java
/home/vagrant/stdrpc/src/main/java/br/com/santander/poc/geolocalizacao/GeolocalizacaoRepository.java
/home/vagrant/stdrpc/src/main/java/br/com/santander/poc/geolocalizacao/GeolocalizacaoController.java
/home/vagrant/stdrpc/src/main/java/br/com/santander/poc/restaurante/RestauranteRepository.java
/home/vagrant/stdrpc/src/main/java/br/com/santander/poc/pedido/Pedido.java
/home/vagrant/stdrpc/src/main/java/br/com/santander/poc/restaurante/RestauranteController.java
/home/vagrant/stdrpc/src/main/java/br/com/santander/poc/SantanderApplication.java
/home/vagrant/stdrpc/src/main/java/br/com/santander/poc/prato/PratoRepository.java
/home/vagrant/stdrpc/src/main/java/br/com/santander/poc/tipocomida/TipoComidaRepository.java
/home/vagrant/stdrpc/src/main/java/br/com/santander/poc/tipocomida/TipoComida.java
